1446674579.061955,-1.4921606132435037,-0.036057351579663166,0.12811867476178174,-0.21987057959694178,0,0,0,0
1446674579.12896,-1.4921606132435037,-0.036057351579663166,0.12811867476178174,-0.2147573103039897,0,0,0,0
1446674579.195967,-1.4921606132435037,-0.036057351579663166,0.12811867476178174,-0.2147573103039897,0,0,0,0
1446674579.262964,-1.4921606132435037,-0.036057351579663166,0.12811867476178174,-0.2147573103039897,0,0,0,0
1446674579.328978,-1.4921606132435037,-0.036057351579663166,0.12811867476178174,-0.2147573103039897,0,0,0,0
1446674579.395933,-1.4921606132435037,-0.036057351579663166,0.12811867476178174,-0.2147573103039897,0,0,0,0
1446674579.46295,-1.4921606132435037,-0.036057351579663166,0.12811867476178174,-0.2147573103039897,0,0,0,0
1446674579.529904,-1.4921606132435037,-0.03759170696603187,0.12811867476178174,-0.2147573103039897,0,0,0,0
1446674579.598984,-1.4921606132435037,-0.036057351579663166,0.12811867476178174,-0.2147573103039897,0,0,0,0
1446674579.667154,-1.4906262578571352,-0.036057351579663166,0.12811867476178174,-0.2147573103039897,0,0,0,0
1446674579.729974,-1.4921606132435037,-0.036057351579663166,0.12811867476178174,-0.2147573103039897,0,0,0,0
1446674579.800074,-1.4921606132435037,-0.036057351579663166,0.12811867476178174,-0.2147573103039897,0,0,0,0
1446674579.86731,-1.4921606132435037,-0.036057351579663166,0.12811867476178174,-0.2147573103039897,0,0,0,0
1446674579.930194,-1.4921606132435037,-0.03759170696603187,0.12811867476178174,-0.2147573103039897,0,0,0,0
1446674579.998768,-1.4906262578571352,-0.03759170696603187,0.12811867476178174,-0.2147573103039897,0,0,0,0
1446674580.06616,-1.4921606132435037,-0.036057351579663166,0.12811867476178174,-0.2147573103039897,0,0,0,0
1446674580.130959,-1.4921606132435037,-0.036057351579663166,0.12811867476178174,-0.2147573103039897,0,0,0,0
1446674580.197057,-1.4921606132435037,-0.036057351579663166,0.12811867476178174,-0.2147573103039897,0,0,0,0
1446674580.263929,-1.4921606132435037,-0.036057351579663166,0.12811867476178174,-0.2147573103039897,0,0,0,0
1446674580.33097,-1.4906262578571352,-0.036057351579663166,0.12811867476178174,-0.2147573103039897,0,0,0,0
1446674580.39795,-1.4921606132435037,-0.036057351579663166,0.12811867476178174,-0.2147573103039897,0,0,0,0
1446674580.463945,-1.4921606132435037,-0.036057351579663166,0.12811867476178174,-0.2147573103039897,0,0,0,0
1446674580.530975,-1.4921606132435037,-0.036057351579663166,0.12811867476178174,-0.2147573103039897,-0.8922276571733652,-0.028385574647819656,0.12351560860267563,-0.28634308040531975
1446674580.598011,-1.4921606132435037,-0.036057351579663166,0.12811867476178174,-0.2147573103039897,-0.8922276571733652,-0.028385574647819656,0.12351560860267563,-0.28634308040531975
1446674580.66494,-1.4906262578571352,-0.03759170696603187,0.12811867476178174,-0.2147573103039897,-0.8922276571733652,-0.028385574647819656,0.12351560860267563,-0.28634308040531975
1446674580.730914,-1.4921606132435037,-0.036057351579663166,0.12811867476178174,-0.2147573103039897,-0.8922276571733652,-0.028385574647819656,0.12351560860267563,-0.28634308040531975
1446674580.797904,-1.4921606132435037,-0.036057351579663166,0.12811867476178174,-0.2147573103039897,-0.8922276571733652,-0.028385574647819656,0.12351560860267563,-0.28634308040531975
1446674580.86499,-1.4921606132435037,-0.036057351579663166,0.12811867476178174,-0.21987057959694178,-0.8922276571733652,-0.028385574647819656,0.12351560860267563,-0.28634308040531975
1446674580.931919,-1.4921606132435037,-0.036057351579663166,0.12811867476178174,-0.2147573103039897,-0.8922276571733652,-0.028385574647819656,0.12351560860267563,-0.28634308040531975
1446674581.000617,-1.4921606132435037,-0.036057351579663166,0.12811867476178174,-0.2147573103039897,-0.8922276571733652,-0.028385574647819656,0.12351560860267563,-0.28634308040531975
1446674581.066668,-1.4921606132435037,-0.036057351579663166,0.12811867476178174,-0.2147573103039897,-0.8922276571733652,-0.028385574647819656,0.12351560860267563,-0.28634308040531975
1446674581.135873,-1.4921606132435037,-0.036057351579663166,0.12811867476178174,-0.20964404101103762,-0.8922276571733652,-0.028385574647819656,0.12351560860267563,-0.28634308040531975
1446674581.198951,-1.4921606132435037,-0.036057351579663166,0.12811867476178174,-0.21987057959694178,-0.8922276571733652,-0.028385574647819656,0.12351560860267563,-0.28634308040531975
1446674581.265954,-1.4921606132435037,-0.036057351579663166,0.12811867476178174,-0.2147573103039897,-0.8922276571733652,-0.028385574647819656,0.12351560860267563,-0.28634308040531975
1446674581.331962,-1.4921606132435037,-0.03759170696603187,0.12811867476178174,-0.2147573103039897,-0.8922276571733652,-0.028385574647819656,0.12351560860267563,-0.28634308040531975
1446674581.398981,-1.4921606132435037,-0.036057351579663166,0.12811867476178174,-0.2147573103039897,-0.8922276571733652,-0.028385574647819656,0.12351560860267563,-0.28634308040531975
1446674581.465984,-1.4921606132435037,-0.036057351579663166,0.12811867476178174,-0.2147573103039897,-0.8922276571733652,-0.028385574647819656,0.12351560860267563,-0.28634308040531975
1446674581.532947,-1.4921606132435037,-0.036057351579663166,0.12811867476178174,-0.2147573103039897,-0.8922276571733652,-0.028385574647819656,0.12351560860267563,-0.28634308040531975
1446674581.598955,-1.4921606132435037,-0.036057351579663166,0.12811867476178174,-0.2147573103039897,-0.8922276571733652,-0.028385574647819656,0.12351560860267563,-0.28634308040531975
1446674581.66593,-1.426183331629652,-0.028385574647819656,0.1311873855345187,-0.2607767339405589,-0.8922276571733652,-0.028385574647819656,0.12351560860267563,-0.28634308040531975
1446674581.73303,-1.3371907192202708,-0.023782508488713994,0.12965303014815,-0.301682888284176,-0.8922276571733652,-0.028385574647819656,0.12351560860267563,-0.28634308040531975
1446674581.799956,-1.246663751424521,-0.026851219261450954,0.12811867476178174,-0.29145634969827183,-0.8922276571733652,-0.028385574647819656,0.12351560860267563,-0.28634308040531975
1446674581.865948,-1.1576711390151397,-0.026851219261450954,0.12965303014815,-0.29145634969827183,-0.8922276571733652,-0.028385574647819656,0.12351560860267563,-0.28634308040531975
1446674581.933062,-1.06714417121939,-0.026851219261450954,0.12965303014815,-0.29145634969827183,-0.8922276571733652,-0.028385574647819656,0.12351560860267563,-0.28634308040531975
1446674581.999998,-0.9796859141963776,-0.026851219261450954,0.12811867476178174,-0.29145634969827183,-0.8922276571733652,-0.028385574647819656,0.12351560860267563,-0.28634308040531975
1446674582.066834,-0.90910556642342,-0.026851219261450954,0.12811867476178174,-0.29145634969827183,-0.8922276571733652,-0.028385574647819656,0.12351560860267563,-0.28634308040531975
1446674582.132949,-0.9029681448779452,-0.026851219261450954,0.12811867476178174,-0.29145634969827183,-0.8922276571733652,-0.11124076551172646,0.04219477312513753,-0.28634308040531975
1446674582.199946,-0.9029681448779452,-0.06674445930703587,0.07134752546614154,-0.28634308040531975,-0.8922276571733652,-0.11124076551172646,0.04219477312513753,-0.28634308040531975
1446674582.266904,-0.9029681448779452,-0.11737818705720127,0.03145428542055706,-0.28634308040531975,-0.9121742771961574,-0.1051033439662521,-0.37975295812623866,-0.41928808202207524
1446674582.333914,-0.9014337894915765,-0.10817205473898905,-0.03298864080692576,-0.33236250404188894,-0.9121742771961574,-0.1051033439662521,-0.37975295812623866,-0.41928808202207524
1446674582.400007,-0.9029681448779452,-0.11737818705720127,-0.1327217409208874,-0.4295146206079794,-0.9121742771961574,-0.1051033439662521,-0.37975295812623866,-0.41928808202207524
1446674582.466876,-0.9014337894915765,-0.11891254244356997,-0.23245484103484948,-0.4346278899009315,-0.9121742771961574,-0.1051033439662521,-0.37975295812623866,-0.41928808202207524
1446674582.533868,-0.9029681448779452,-0.11891254244356997,-0.3321879411488107,-0.41928808202207524,-0.9121742771961574,-0.1051033439662521,-0.37975295812623866,-0.41928808202207524
1446674582.600948,-0.9029681448779452,-0.12198125321630693,-0.3674781150352895,-0.4244013513150273,-0.9781515588100089,-0.5960970676042172,-0.5945627122178485,-0.4244013513150273
1446674582.666951,-0.9566705834008475,-0.1634088486482601,-0.4288523304900349,-0.4244013513150273,-0.9781515588100089,-0.5960970676042172,-0.5945627122178485,-0.4244013513150273
1446674582.733961,-0.9689454264917967,-0.27541679185317136,-0.5316541413767344,-0.4244013513150273,-0.9781515588100089,-0.5960970676042172,-0.5945627122178485,-0.4244013513150273
1446674582.802205,-0.9689454264917967,-0.39509651198992524,-0.5930283568314798,-0.41417481272912315,-0.9781515588100089,-0.5960970676042172,-0.5945627122178485,-0.4244013513150273
1446674582.867892,-0.9704797818781654,-0.5132418767403104,-0.6007001337633233,-0.4244013513150273,-0.9781515588100089,-0.5960970676042172,-0.5945627122178485,-0.4244013513150273
1446674582.934955,-0.9704797818781654,-0.6053031999224294,-0.6099062660815346,-0.4244013513150273,-0.9781515588100089,-0.5960970676042172,-0.5945627122178485,-0.4244013513150273
1446674583.00102,-0.9704797818781654,-0.6145093322406407,-0.6099062660815346,-0.4244013513150273,-0.8569374832868863,-1.088625146628551,-0.3766842473535017,-0.4244013513150273
1446674583.067997,-0.9198460541280005,-0.6912271015590727,-0.5516007613995266,-0.4244013513150273,-0.8569374832868863,-1.088625146628551,-0.3766842473535017,-0.4244013513150273
1446674583.134961,-0.858471838673255,-0.8170442432413014,-0.4825547690129377,-0.4244013513150273,-0.8569374832868863,-1.088625146628551,-0.3766842473535017,-0.4244013513150273
1446674583.201988,-0.858471838673255,-0.9443957403098988,-0.4150431320127175,-0.4244013513150273,-0.8569374832868863,-1.088625146628551,-0.3766842473535017,-0.4244013513150273
1446674583.267982,-0.858471838673255,-1.062541105060284,-0.385890379671713,-0.4244013513150273,-0.8569374832868863,-1.088625146628551,-0.3766842473535017,-0.4244013513150273
1446674583.334947,-0.858471838673255,-1.1131748328104494,-0.385890379671713,-0.4244013513150273,-0.8201129540140388,-1.280419569924631,-0.356737627330709,-0.4295146206079794
1446674583.401959,-0.8201129540140388,-1.1852895359697753,-0.3644094042625525,-0.4244013513150273,-0.8201129540140388,-1.280419569924631,-0.356737627330709,-0.4295146206079794
1446674583.468963,-0.8047694001503523,-1.2911600576292117,-0.3690124704216582,-0.4244013513150273,-0.8201129540140388,-1.280419569924631,-0.356737627330709,-0.4295146206079794
1446674583.535002,-0.806303755536721,-1.3003661899474235,-0.3674781150352895,-0.4244013513150273,-0.8185785986276701,-1.3203128099702157,-0.3889590904444509,-0.49598712141635737
1446674583.601997,-0.806303755536721,-1.3233815207429531,-0.38128731351260736,-0.4653075056586444,-0.8185785986276701,-1.3203128099702157,-0.3889590904444509,-0.49598712141635737
1446674583.66889,-0.806303755536721,-1.3356563638339023,-0.39663086737629394,-0.5113269292952136,-0.7924945570594031,-1.397030579288648,-0.37361553658076385,-0.5011003907093095
1446674583.735902,-0.7986319786048779,-1.397030579288648,-0.38435602428534477,-0.5011003907093095,-0.7924945570594031,-1.397030579288648,-0.37361553658076385,-0.5011003907093095
1446674583.801967,-0.7955632678321405,-1.4200459100841776,-0.385890379671713,-0.5011003907093095,-0.7878914909002974,-1.447664307038813,-0.3536689165579716,-0.5011003907093095
1446674583.868962,-0.7955632678321405,-1.444595596266076,-0.3705468258080269,-0.5011003907093095,-0.7878914909002974,-1.4844888363116606,-0.3291192303760737,-0.49598712141635737
1446674583.93589,-0.7955632678321405,-1.4906262578571352,-0.3337222965351794,-0.49598712141635737,-0.78482278012756,-1.4844888363116606,-0.327584874989705,-0.49598712141635737
1446674584.003047,-0.7878914909002974,-1.4998323901753468,-0.327584874989705,-0.49598712141635737,-0.78482278012756,-1.4660765716752366,-0.3321879411488107,-0.49598712141635737
1446674584.069034,-0.78482278012756,-1.4967636794026096,-0.3321879411488107,-0.49598712141635737,-0.7894258462866661,-1.3740152484931183,-0.35060020578523465,-0.5011003907093095
1446674584.135921,-0.7832884247411913,-1.4752827039934486,-0.34446278423975984,-0.49598712141635737,-0.7894258462866661,-1.3740152484931183,-0.35060020578523465,-0.5011003907093095
1446674584.202985,-0.78482278012756,-1.456870439357025,-0.35520327194434076,-0.49598712141635737,-0.7894258462866661,-1.3740152484931183,-0.35060020578523465,-0.5011003907093095
1446674584.269929,-0.78482278012756,-1.4415268854933385,-0.3644094042625525,-0.49598712141635737,-0.7894258462866661,-1.3740152484931183,-0.35060020578523465,-0.5011003907093095
1446674584.336978,-0.78482278012756,-1.423114620856915,-0.3644094042625525,-0.49598712141635737,-0.7894258462866661,-1.3740152484931183,-0.35060020578523465,-0.5011003907093095
1446674584.403008,-0.78482278012756,-1.404702356220491,-0.3644094042625525,-0.49598712141635737,-0.9152429879688944,-1.3494655623112202,-0.3582719827170777,-0.5011003907093095
1446674584.469954,-0.8293190863322506,-1.387824446970436,-0.3644094042625525,-0.49598712141635737,-0.9152429879688944,-1.3494655623112202,-0.3582719827170777,-0.5011003907093095
1446674584.537017,-0.9029681448779452,-1.3832213808113303,-0.3644094042625525,-0.49598712141635737,-0.9152429879688944,-1.3494655623112202,-0.3582719827170777,-0.5011003907093095
1446674584.603946,-0.9121742771961574,-1.3816870254249614,-0.3644094042625525,-0.49598712141635737,-0.9628080049463223,-1.3463968515384828,-0.3582719827170777,-0.5011003907093095
1446674584.669915,-0.9459300956962675,-1.3816870254249614,-0.3644094042625525,-0.49598712141635737,-0.9628080049463223,-1.3463968515384828,-0.3582719827170777,-0.5011003907093095
1446674584.736939,-0.9597392941735854,-1.3832213808113303,-0.3644094042625525,-0.49598712141635737,-0.964342360332691,-1.3463968515384828,-0.3582719827170777,-0.5011003907093095
1446674584.80397,-0.9597392941735854,-1.3816870254249614,-0.3644094042625525,-0.49598712141635737,-0.9520675172417419,-1.3816870254249614,-0.3628750488761838,-0.49598712141635737
1446674584.87096,-0.9566705834008475,-1.397030579288648,-0.3644094042625525,-0.49598712141635737,-0.9351896079916866,-1.426183331629652,-0.3659437596489208,-0.49598712141635737
1446674584.936942,-0.9382583187644244,-1.4246489762432835,-0.3659437596489208,-0.49598712141635737,-0.9290521864462122,-1.461473505516131,-0.35060020578523465,-0.49598712141635737
1446674585.003973,-0.9321208972189496,-1.4645422162888682,-0.3659437596489208,-0.49598712141635737,-0.9229147649007374,-1.5029011009480842,-0.3306535857624424,-0.49598712141635737
1446674585.07099,-0.9229147649007374,-1.50750416710719,-0.3306535857624424,-0.49598712141635737,-0.9213804095143692,-1.5029011009480842,-0.3337222965351794,-0.49598712141635737
1446674585.137984,-0.9213804095143692,-1.5151759440390333,-0.3245161642169676,-0.49598712141635737,-0.9198460541280005,-1.4844888363116606,-0.3383253626942855,-0.49598712141635737
1446674585.204956,-0.9198460541280005,-1.5090385224935587,-0.3306535857624424,-0.49598712141635737,-0.9244491202871066,-1.4154428439250715,-0.33985971808065374,-0.49598712141635737
1446674585.27094,-0.9198460541280005,-1.4890919024707665,-0.3367910073079168,-0.49598712141635737,-0.9244491202871066,-1.4154428439250715,-0.33985971808065374,-0.49598712141635737
1446674585.337957,-0.9198460541280005,-1.4660765716752366,-0.34446278423975984,-0.49598712141635737,-0.9244491202871066,-1.4154428439250715,-0.33985971808065374,-0.49598712141635737
1446674585.404949,-0.9198460541280005,-1.4553360839706562,-0.34599713962612855,-0.49598712141635737,-0.9244491202871066,-1.4154428439250715,-0.33985971808065374,-0.49598712141635737
1446674585.472009,-0.9183116987416318,-1.4553360839706562,-0.34599713962612855,-0.49598712141635737,-0.9305865418325809,-1.3310532976747962,-0.3889590904444509,-0.5011003907093095
1446674585.537995,-0.9183116987416318,-1.444595596266076,-0.38128731351260736,-0.49598712141635737,-0.9305865418325809,-1.3310532976747962,-0.3889590904444509,-0.5011003907093095
1446674585.604985,-0.9198460541280005,-1.4292520424023893,-0.39509651198992524,-0.49598712141635737,-0.9305865418325809,-1.3310532976747962,-0.3889590904444509,-0.5011003907093095
1446674585.671988,-0.9183116987416318,-1.4093054223795969,-0.3996995781490309,-0.49598712141635737,-0.9305865418325809,-1.3310532976747962,-0.3889590904444509,-0.5011003907093095
1446674585.739,-0.9183116987416318,-1.3893588023568049,-0.4012339335353996,-0.49598712141635737,-0.9305865418325809,-1.3310532976747962,-0.3889590904444509,-0.5011003907093095
1446674585.805976,-0.9198460541280005,-1.3694121823340124,-0.4012339335353996,-0.49598712141635737,-0.9305865418325809,-1.3310532976747962,-0.3889590904444509,-0.5011003907093095
1446674585.872002,-0.9183116987416318,-1.3648091161749063,-0.4012339335353996,-0.5011003907093095,-0.9382583187644244,-1.2267171314017289,-0.5423946290813144,-0.5011003907093095
1446674585.938969,-0.9198460541280005,-1.3433281407657456,-0.47795170285383204,-0.49598712141635737,-0.9382583187644244,-1.2267171314017289,-0.5423946290813144,-0.5011003907093095
1446674586.006026,-0.9198460541280005,-1.3295189422884277,-0.5423946290813144,-0.49598712141635737,-0.9382583187644244,-1.2267171314017289,-0.5423946290813144,-0.5011003907093095
1446674586.072997,-0.9183116987416318,-1.3126410330383727,-0.5531351167858953,-0.49598712141635737,-0.9382583187644244,-1.2267171314017289,-0.5423946290813144,-0.5011003907093095
1446674586.138983,-0.9198460541280005,-1.2942287684019491,-0.5546694721722636,-0.49598712141635737,-0.9382583187644244,-1.2267171314017289,-0.5423946290813144,-0.5011003907093095
1446674586.206014,-0.9183116987416318,-1.2742821483791567,-0.5546694721722636,-0.49598712141635737,-0.9382583187644244,-1.2267171314017289,-0.5423946290813144,-0.5011003907093095
1446674586.273007,-0.9198460541280005,-1.260472949901839,-0.5546694721722636,-0.49598712141635737,-0.9735484926509028,-1.091693857401288,-0.7602730939456617,-0.5420065450529266
1446674586.339969,-0.9474644510826358,-1.2374576191063094,-0.6298528861043273,-0.5420065450529266,-0.9735484926509028,-1.091693857401288,-0.7602730939456617,-0.5420065450529266
1446674586.405997,-0.9566705834008475,-1.208304866765305,-0.7280516308319203,-0.5522330836388307,-0.9735484926509028,-1.091693857401288,-0.7602730939456617,-0.5420065450529266
1446674586.472963,-0.9582049387872167,-1.1776177590379322,-0.7526013170138186,-0.5522330836388307,-0.9735484926509028,-1.091693857401288,-0.7602730939456617,-0.5420065450529266
1446674586.539974,-0.9582049387872167,-1.153068072856034,-0.7618074493320304,-0.5522330836388307,-0.9735484926509028,-1.091693857401288,-0.7602730939456617,-0.5420065450529266
1446674586.607041,-0.9566705834008475,-1.1331214528332416,-0.766410515491136,-0.5522330836388307,-0.9735484926509028,-1.091693857401288,-0.7602730939456617,-0.5420065450529266
1446674586.674048,-0.9566705834008475,-1.1193122543559237,-0.766410515491136,-0.5522330836388307,-0.964342360332691,-1.0932282127876571,-0.6912271015590727,-0.7874434711146292
1446674586.739979,-0.9582049387872167,-1.1193122543559237,-0.7188454985137085,-0.6033657765683524,-0.964342360332691,-1.0932282127876571,-0.6912271015590727,-0.7874434711146292
1446674586.806925,-0.9582049387872167,-1.117777898969555,-0.7019675892636537,-0.705631162427395,-0.964342360332691,-1.0932282127876571,-0.6912271015590727,-0.7874434711146292
1446674586.873955,-0.9566705834008475,-1.117777898969555,-0.700433233877285,-0.8078965482864378,-0.964342360332691,-1.0932282127876571,-0.6912271015590727,-0.7874434711146292
1446674586.941018,-0.9566705834008475,-1.117777898969555,-0.7019675892636537,-0.7976700097005334,-0.9612736495599536,-1.1561367836287713,-0.6451964399680135,-0.7976700097005334
1446674587.006995,-0.9566705834008475,-1.1592054944015087,-0.6544025722862257,-0.7925567404075813,-0.9612736495599536,-1.1561367836287713,-0.6451964399680135,-0.7976700097005334
1446674587.073958,-0.9566705834008475,-1.1776177590379322,-0.6482651507407509,-0.7925567404075813,-0.9566705834008475,-1.1990987344470931,-0.6221811091724843,-0.7976700097005334
1446674587.140986,-0.9551362280144793,-1.1990987344470931,-0.6313872414906956,-0.7925567404075813,-0.9551362280144793,-1.2267171314017289,-0.6083719106951664,-0.8027832789934857
1446674587.208027,-0.9536018726281106,-1.234388908333572,-0.6160436876270095,-0.7925567404075813,-0.9536018726281106,-1.2497324621972583,-0.6068375553087977,-0.7976700097005334
1446674587.273926,-0.9551362280144793,-1.2543355283563644,-0.6099062660815346,-0.7925567404075813,-0.9536018726281106,-1.2451293960381524,-0.6068375553087977,-0.7976700097005334
1446674587.340983,-0.9551362280144793,-1.255869883742733,-0.6083719106951664,-0.7925567404075813,-0.9674110711054285,-1.0610067496739157,-0.6037688445360603,-0.8232363561652942
1446674587.407985,-0.9536018726281106,-1.2389919744926778,-0.6083719106951664,-0.8232363561652942,-0.9674110711054285,-1.0610067496739157,-0.6037688445360603,-0.8232363561652942
1446674587.474986,-0.9536018726281106,-1.2159766436971482,-0.6083719106951664,-0.8334628947511984,-0.9674110711054285,-1.0610067496739157,-0.6037688445360603,-0.8232363561652942
1446674587.540926,-0.9536018726281106,-1.1944956682879873,-0.6083719106951664,-0.8334628947511984,-0.9674110711054285,-1.0610067496739157,-0.6037688445360603,-0.8232363561652942
1446674587.607973,-0.9536018726281106,-1.1714803374924576,-0.6083719106951664,-0.8334628947511984,-0.9674110711054285,-1.0610067496739157,-0.6037688445360603,-0.8232363561652942
1446674587.674987,-0.9536018726281106,-1.1499993620832967,-0.6083719106951664,-0.8334628947511984,-0.9674110711054285,-1.0610067496739157,-0.6037688445360603,-0.8232363561652942
1446674587.742,-0.9536018726281106,-1.128518386674136,-0.6099062660815346,-0.8334628947511984,-0.9674110711054285,-1.0610067496739157,-0.6037688445360603,-0.8232363561652942
1446674587.807997,-0.9536018726281106,-1.1039687004922372,-0.6083719106951664,-0.8334628947511984,-0.9674110711054285,-1.0610067496739157,-0.6037688445360603,-0.8232363561652942
1446674587.874975,-0.9551362280144793,-1.084022080469445,-0.6099062660815346,-0.8334628947511984,-1.0241822204010678,-1.0425944850374917,-0.17414933635284102,-1.5186409800067848
1446674587.941897,-0.9950294680600638,-1.0763503035376019,-0.5654099598768445,-0.8794823183877676,-1.0241822204010678,-1.0425944850374917,-0.17414933635284102,-1.5186409800067848
1446674588.008985,-1.0103730219237503,-1.0686785266057588,-0.49636396749025513,-0.9868609735397624,-1.0241822204010678,-1.0425944850374917,-0.17414933635284102,-1.5186409800067848
1446674588.074988,-1.0103730219237503,-1.0686785266057588,-0.42578361971729795,-1.0993528979847096,-1.0241822204010678,-1.0425944850374917,-0.17414933635284102,-1.5186409800067848
1446674588.141987,-1.0103730219237503,-1.0686785266057588,-0.35520327194434076,-1.2169580917226088,-1.0241822204010678,-1.0425944850374917,-0.17414933635284102,-1.5186409800067848
1446674588.208963,-1.0103730219237503,-1.0686785266057588,-0.2861572795577514,-1.33967655475346,-1.0241822204010678,-1.0425944850374917,-0.17414933635284102,-1.5186409800067848
1446674588.275884,-1.0103730219237503,-1.0686785266057588,-0.21711128717116246,-1.4623950177843112,-1.0241822204010678,-1.0425944850374917,-0.17414933635284102,-1.5186409800067848
1446674588.342024,-1.0103730219237503,-1.0686785266057588,-0.17568369173920928,-1.5442073264715455,-1.0241822204010678,-1.0425944850374917,-0.17414933635284102,-1.5186409800067848
1446674588.40891,-1.0103730219237503,-1.0686785266057588,-0.17568369173920928,-1.5339807878856413,-1.0379914188783856,-1.2144422883107797,0.08362236855709071,-1.712945213138966
1446674588.476013,-1.0180447988555934,-1.1469306513105595,-0.11584383167083212,-1.559547134350402,-1.0379914188783856,-1.2144422883107797,0.08362236855709071,-1.712945213138966
1446674588.542956,-1.0226478650146995,-1.22518277601536,-0.052935260829718,-1.6618125202094447,-1.0379914188783856,-1.2144422883107797,0.08362236855709071,-1.712945213138966
1446674588.609911,-1.0226478650146995,-1.2297858421744658,0.013042020784133523,-1.7333982903107747,-1.0379914188783856,-1.2144422883107797,0.08362236855709071,-1.712945213138966
1446674588.675876,-1.0226478650146995,-1.2297858421744658,0.0514009054433493,-1.7231717517248704,-1.0379914188783856,-1.2144422883107797,0.08362236855709071,-1.712945213138966
1446674588.742893,-1.0226478650146995,-1.2297858421744658,0.0514009054433493,-1.718058482431918,-1.0318539973329117,-1.2144422883107797,-0.1634088486482601,-1.712945213138966
1446674588.809906,-1.0226478650146995,-1.2297858421744658,-0.023782508488713994,-1.718058482431918,-1.0318539973329117,-1.2144422883107797,-0.1634088486482601,-1.712945213138966
1446674588.877024,-1.0226478650146995,-1.2297858421744658,-0.12965303014815,-1.718058482431918,-1.0318539973329117,-1.2144422883107797,-0.1634088486482601,-1.712945213138966
1446674588.942993,-1.0226478650146995,-1.2297858421744658,-0.15880578248915445,-1.718058482431918,-1.0379914188783856,-1.2313201975608348,-0.2769511472395396,-1.712945213138966
1446674589.009915,-1.0226478650146995,-1.243595040651784,-0.23705790719395514,-1.718058482431918,-1.0379914188783856,-1.2313201975608348,-0.2769511472395396,-1.712945213138966
1446674589.07692,-1.0226478650146995,-1.246663751424521,-0.26621065953495915,-1.712945213138966,-1.0379914188783856,-1.243595040651784,-0.34599713962612855,-1.7027186745530618
1446674589.143946,-1.0226478650146995,-1.260472949901839,-0.3260505196033363,-1.712945213138966,-1.0379914188783856,-1.243595040651784,-0.34599713962612855,-1.7027186745530618
1446674589.209981,-1.0226478650146995,-1.2620073052882075,-0.3383253626942855,-1.7027186745530618,-1.036457063492017,-1.2650760160609449,-0.37821860273986996,-1.7027186745530618
1446674589.276967,-1.0226478650146995,-1.2758165037655254,-0.3644094042625525,-1.7027186745530618,-1.036457063492017,-1.2926944130155804,-0.4395928181946158,-1.600453288694019
1446674589.343911,-1.0241822204010678,-1.2742821483791567,-0.4150431320127175,-1.6618125202094447,-1.036457063492017,-1.2926944130155804,-0.4395928181946158,-1.600453288694019
1446674589.410889,-1.0241822204010678,-1.2926944130155804,-0.4288523304900349,-1.5902267501081149,-1.036457063492017,-1.2926944130155804,-0.4395928181946158,-1.600453288694019
1446674589.476938,-1.025716575787437,-1.3019005453337922,-0.42578361971729795,-1.5851134808151626,-1.0349227081056487,-1.2650760160609449,-0.4902265459447812,-1.5748869422292584
1446674589.543889,-1.025716575787437,-1.2742821483791567,-0.4748829920810942,-1.5902267501081149,-1.0349227081056487,-1.2650760160609449,-0.4902265459447812,-1.5748869422292584
1446674589.610955,-1.0272509311738056,-1.2712134376064195,-0.47795170285383204,-1.5748869422292584,-1.036457063492017,-1.1745490482651948,-0.6712804815362805,-1.447055209905455
1446674589.678034,-1.025716575787437,-1.2297858421744658,-0.5562038275586323,-1.5339807878856413,-1.036457063492017,-1.1745490482651948,-0.6712804815362805,-1.447055209905455
1446674589.74402,-1.025716575787437,-1.1883582467425127,-0.6390590184225395,-1.4419419406125027,-1.036457063492017,-1.1745490482651948,-0.6712804815362805,-1.447055209905455
1446674589.811057,-1.0272509311738056,-1.182220825197038,-0.6513338615134883,-1.4214888634406941,-1.036457063492017,-1.0441288404238604,-0.9244491202871066,-1.2374111688944174
1446674589.877958,-1.0272509311738056,-1.139258874378716,-0.7265172754455516,-1.4010357862688856,-1.036457063492017,-1.0441288404238604,-0.9244491202871066,-1.2374111688944174
1446674589.945016,-1.0272509311738056,-1.0901595020149197,-0.8231816647867762,-1.3038836697027951,-1.036457063492017,-1.0441288404238604,-0.9244491202871066,-1.2374111688944174
1446674590.012009,-1.0272509311738056,-1.0518006173557035,-0.8968307233324708,-1.2118448224296565,-1.036457063492017,-1.0441288404238604,-0.9244491202871066,-1.2374111688944174
1446674590.077983,-1.025716575787437,-1.0502662619693348,-0.8998994341052082,-1.2169580917226088,-1.03338835271928,-0.9842889803554837,-1.03338835271928,-1.1300325137424223
1446674590.145001,-1.0272509311738056,-1.011907377310119,-0.9704797818781654,-1.191391745257848,-1.03338835271928,-0.9842889803554837,-1.03338835271928,-1.1300325137424223
1446674590.212009,-1.0272509311738056,-0.9904264019009577,-1.0165104434692247,-1.1095794365706138,-1.03338835271928,-0.9842889803554837,-1.03338835271928,-1.1300325137424223
1446674590.278948,-1.0272509311738056,-0.9919607572873268,-1.0180447988555934,-1.1095794365706138,-1.0318539973329117,-0.8185785986276701,-1.059472394287547,-1.1300325137424223
1446674590.34489,-1.0272509311738056,-0.9597392941735854,-1.0441288404238604,-1.1300325137424223,-1.0318539973329117,-0.8185785986276701,-1.059472394287547,-1.1300325137424223
1446674590.411956,-1.0272509311738056,-0.9275178310598435,-1.0518006173557035,-1.1300325137424223,-1.0318539973329117,-0.8185785986276701,-1.059472394287547,-1.1300325137424223
1446674590.478929,-1.025716575787437,-0.8937620125597334,-1.0579380389011779,-1.1300325137424223,-1.0318539973329117,-0.8185785986276701,-1.059472394287547,-1.1300325137424223
1446674590.546015,-1.025716575787437,-0.861540549445992,-1.059472394287547,-1.1300325137424223,-1.0318539973329117,-0.8185785986276701,-1.059472394287547,-1.1300325137424223
1446674590.611897,-1.0272509311738056,-0.8339221524913563,-1.059472394287547,-1.1300325137424223,-1.0241822204010678,-0.6482651507407509,-1.2911600576292117,-1.1351457830353746
1446674590.67897,-1.0241822204010678,-0.8047694001503523,-1.1346558082196103,-1.1351457830353746,-1.0241822204010678,-0.6482651507407509,-1.2911600576292117,-1.1351457830353746
1446674590.745956,-1.0241822204010678,-0.7648761601047678,-1.2389919744926778,-1.1402590523283267,-1.0241822204010678,-0.6482651507407509,-1.2911600576292117,-1.1351457830353746
1446674590.812981,-1.0241822204010678,-0.7341890523773951,-1.2758165037655254,-1.1402590523283267,-1.0241822204010678,-0.6482651507407509,-1.2911600576292117,-1.1351457830353746
1446674590.87901,-1.0226478650146995,-0.6942958123318101,-1.2850226360837371,-1.1453723216212788,-1.0241822204010678,-0.6482651507407509,-1.2911600576292117,-1.1351457830353746
1446674590.945967,-1.0241822204010678,-0.6728148369226497,-1.2880913468564745,-1.1402590523283267,-0.9980981788328016,-0.507104455194836,-1.5289851425163512,-1.1300325137424223
1446674591.012975,-1.007304311151013,-0.6421277291952765,-1.3617404054021691,-1.1402590523283267,-0.9980981788328016,-0.507104455194836,-1.5289851425163512,-1.1300325137424223
1446674591.080016,-1.0057699557646447,-0.5960970676042172,-1.4630078609024995,-1.1300325137424223,-0.9980981788328016,-0.507104455194836,-1.5289851425163512,-1.1300325137424223
1446674591.146993,-1.0057699557646447,-0.5546694721722636,-1.5182446548117707,-1.1300325137424223,-0.9980981788328016,-0.507104455194836,-1.5289851425163512,-1.1300325137424223
1446674591.21295,-1.0057699557646447,-0.5316541413767344,-1.5228477209708766,-1.1300325137424223,-0.9904264019009577,-0.5669443152632132,-1.5136415886526646,-1.1300325137424223
1446674591.279875,-0.9919607572873268,-0.5592725383313697,-1.5197790101981392,-1.1300325137424223,-0.9842889803554837,-0.6298528861043273,-1.5259164317436138,-1.0533334743481404
1446674591.346945,-0.9888920465145894,-0.6313872414906956,-1.5228477209708766,-1.0891263593988052,-0.9842889803554837,-0.6298528861043273,-1.5259164317436138,-1.0533334743481404
1446674591.41396,-0.9888920465145894,-0.6482651507407509,-1.5305194979027197,-1.0328803971763318,-0.9796859141963776,-0.700433233877285,-1.5351225640618258,-0.9715211656609062
1446674591.479955,-0.9888920465145894,-0.6774179030817549,-1.5182446548117707,-0.9970875121256668,-0.9796859141963776,-0.700433233877285,-1.5351225640618258,-0.9715211656609062
1446674591.546987,-0.9873576911282207,-0.700433233877285,-1.5197790101981392,-0.9459548191961455,-0.9796859141963776,-0.7157767877409711,-1.5412599856073002,-0.9510680884890976
1446674591.613966,-0.9873576911282207,-0.7188454985137085,-1.524382076357245,-0.9459548191961455,-0.9781515588100089,-0.7142424323546028,-1.5443286963800373,-0.9510680884890976
1446674591.680887,-0.9873576911282207,-0.7157767877409711,-1.5259164317436138,-0.9459548191961455,-0.9796859141963776,-0.6313872414906956,-1.5704127379483044,-0.9510680884890976
1446674591.746986,-0.9873576911282207,-0.6804866138544927,-1.550466117925512,-0.9459548191961455,-0.9796859141963776,-0.6313872414906956,-1.5704127379483044,-0.9510680884890976
1446674591.814002,-0.9873576911282207,-0.6544025722862257,-1.5566035394709867,-0.9459548191961455,-0.9674110711054285,-0.4856234797856751,-1.6348556641757872,-0.9664078963679541
1446674591.880952,-0.9735484926509028,-0.6206467537861156,-1.610305977993889,-0.9510680884890976,-0.9674110711054285,-0.4856234797856751,-1.6348556641757872,-0.9664078963679541
1446674591.94796,-0.9704797818781654,-0.5715473814223189,-1.624115176471207,-0.9612946270750018,-0.9674110711054285,-0.4856234797856751,-1.6348556641757872,-0.9664078963679541
1446674592.015011,-0.9704797818781654,-0.5224480090585222,-1.6302525980166815,-0.9612946270750018,-0.9674110711054285,-0.4856234797856751,-1.6348556641757872,-0.9664078963679541
1446674592.080959,-0.9704797818781654,-0.49636396749025513,-1.6348556641757872,-0.9612946270750018,-1.0640754604466527,-0.652868216899857,-1.1837551805834068,-1.0635600129340446
1446674592.147957,-1.0241822204010678,-0.5761504475814245,-1.5780845148801474,-1.007314050711571,-1.0640754604466527,-0.652868216899857,-1.1837551805834068,-1.0635600129340446
1446674592.21498,-1.0425944850374917,-0.6559369276725944,-1.5090385224935587,-1.0635600129340446,-1.0640754604466527,-0.652868216899857,-1.1837551805834068,-1.0635600129340446
1446674592.281969,-1.0425944850374917,-0.6651430599908057,-1.4338551085614955,-1.0635600129340446,-1.0640754604466527,-0.652868216899857,-1.1837551805834068,-1.0635600129340446
1446674592.347918,-1.0425944850374917,-0.6651430599908057,-1.3632747607885378,-1.0533334743481404,-1.0640754604466527,-0.652868216899857,-1.1837551805834068,-1.0635600129340446
1446674592.415007,-1.0425944850374917,-0.6651430599908057,-1.2880913468564745,-1.0533334743481404,-1.0640754604466527,-0.652868216899857,-1.1837551805834068,-1.0635600129340446
1446674592.481971,-1.0425944850374917,-0.6651430599908057,-1.2159766436971482,-1.0533334743481404,-1.0640754604466527,-0.652868216899857,-1.1837551805834068,-1.0635600129340446
1446674592.549012,-1.0425944850374917,-0.6666774153771748,-1.1883582467425127,-1.0533334743481404,-1.1622742051742458,-0.8661436156050981,-0.6283185307179586,-1.41126232485479
1446674592.615973,-1.0932282127876571,-0.7449295400819751,-1.1300527420605042,-1.0840130901058531,-1.1622742051742458,-0.8661436156050981,-0.6283185307179586,-1.41126232485479
1446674592.681955,-1.148465006696928,-0.8554031279005172,-1.0610067496739157,-1.1862784759648959,-1.1622742051742458,-0.8661436156050981,-0.6283185307179586,-1.41126232485479
1446674592.748897,-1.148465006696928,-0.8768841033096786,-0.9950294680600638,-1.3038836697027951,-1.1622742051742458,-0.8661436156050981,-0.6283185307179586,-1.41126232485479
1446674592.815957,-1.148465006696928,-0.8768841033096786,-0.9244491202871066,-1.406149055561838,-1.1622742051742458,-0.8661436156050981,-0.6283185307179586,-1.41126232485479
1446674592.882907,-1.148465006696928,-0.8768841033096786,-0.8523344171277802,-1.416375594147742,-1.1622742051742458,-0.8661436156050981,-0.6283185307179586,-1.41126232485479
1446674592.948976,-1.148465006696928,-0.8768841033096786,-0.7817540693548231,-1.4010357862688856,-1.1622742051742458,-0.8661436156050981,-0.6283185307179586,-1.41126232485479
1446674593.01596,-1.148465006696928,-0.8768841033096786,-0.7127080769682337,-1.3959225169759335,-1.1622742051742458,-0.8661436156050981,-0.6283185307179586,-1.41126232485479
1446674593.082966,-1.148465006696928,-0.8768841033096786,-0.652868216899857,-1.3959225169759335,-1.1622742051742458,-0.8661436156050981,-0.6283185307179586,-1.41126232485479
1446674593.14989,-1.148465006696928,-0.8768841033096786,-0.6467307953543826,-1.3959225169759335,-1.3295189422884277,-1.0441288404238604,-0.4672112151492511,-1.6209063658658276
1446674593.215962,-1.196030023674356,-0.9582049387872167,-0.5868909352860054,-1.4266021327336464,-1.3295189422884277,-1.0441288404238604,-0.4672112151492511,-1.6209063658658276
1446674593.282968,-1.280419569924631,-1.0487319065829666,-0.5255167198312596,-1.5288675185926892,-1.3295189422884277,-1.0441288404238604,-0.4672112151492511,-1.6209063658658276
1446674593.34996,-1.3264502315156905,-1.054869328128441,-0.4748829920810942,-1.6260196351587797,-1.3295189422884277,-1.0441288404238604,-0.4672112151492511,-1.6209063658658276
1446674593.416977,-1.3249158761293218,-1.0564036835148096,-0.47181428130835723,-1.6209063658658276,-1.3724808931067498,-0.9873576911282207,-0.7418608293092381,-1.564660403643354
1446674593.483879,-1.3494655623112202,-1.03338835271928,-0.5485320506267892,-1.5697736729363063,-1.3724808931067498,-0.9873576911282207,-0.7418608293092381,-1.564660403643354
1446674593.549869,-1.3571373392430632,-1.0149760880828564,-0.6497995061271196,-1.5493205957644978,-1.3724808931067498,-0.9873576911282207,-0.7418608293092381,-1.564660403643354
1446674593.616964,-1.3571373392430632,-1.0149760880828564,-0.7280516308319203,-1.559547134350402,-1.3724808931067498,-0.9873576911282207,-0.7418608293092381,-1.564660403643354
1446674593.683891,-1.3571373392430632,-1.0134417326964877,-0.7387921185365007,-1.559547134350402,-1.3816870254249614,-0.8983650787188395,-1.0211135096283308,-1.3141102082886993
1446674593.750978,-1.3678778269476437,-0.9919607572873268,-0.8170442432413014,-1.5186409800067848,-1.3816870254249614,-0.8983650787188395,-1.0211135096283308,-1.3141102082886993
1446674593.816963,-1.3709465377203809,-0.9597392941735854,-0.9213804095143692,-1.4266021327336464,-1.3816870254249614,-0.8983650787188395,-1.0211135096283308,-1.3141102082886993
1446674593.883984,-1.3709465377203809,-0.9321208972189496,-1.0042356003782755,-1.3243367468746037,-1.3816870254249614,-0.8983650787188395,-1.0211135096283308,-1.3141102082886993
1446674593.951011,-1.3709465377203809,-0.9259834756734753,-1.0165104434692247,-1.2885438618239387,-1.3786183146522242,-0.8523344171277802,-1.1055030558786059,-1.2374111688944174
1446674594.017964,-1.3709465377203809,-0.9029681448779452,-1.084022080469445,-1.2783173232380345,-1.3786183146522242,-0.8523344171277802,-1.1055030558786059,-1.2374111688944174
1446674594.085012,-1.3709465377203809,-0.8768841033096786,-1.1039687004922372,-1.2169580917226088,-1.3786183146522242,-0.8523344171277802,-1.1055030558786059,-1.2374111688944174
1446674594.151007,-1.3709465377203809,-0.8692123263778355,-1.110106122037712,-1.2169580917226088,-1.375549603879487,-0.8952963679461021,-1.0794190143103393,-1.2118448224296565
1446674594.218033,-1.3709465377203809,-0.8998994341052082,-1.084022080469445,-1.2169580917226088,-1.3816870254249614,-0.9674110711054285,-1.041060129651123,-1.1965050145508003
1446674594.285029,-1.3709465377203809,-0.9428613849235301,-1.036457063492017,-1.191391745257848,-1.3816870254249614,-0.9674110711054285,-1.041060129651123,-1.1965050145508003
1446674594.351977,-1.3709465377203809,-0.9489988064690045,-1.0272509311738056,-1.191391745257848,-1.3816870254249614,-0.9796859141963776,-1.0456631958102292,-1.1811652066719438
1446674594.417978,-1.3709465377203809,-0.9582049387872167,-1.0211135096283308,-1.1862784759648959,-1.3816870254249614,-0.9720141372645346,-1.054869328128441,-1.1811652066719438
1446674594.484975,-1.3724808931067498,-0.9781515588100089,-1.036457063492017,-1.1760519373789917,-1.3770839592658557,-0.8385252186504624,-1.0610067496739157,-1.1811652066719438
1446674594.55197,-1.3709465377203809,-0.9536018726281106,-1.0487319065829666,-1.1760519373789917,-1.3770839592658557,-0.8385252186504624,-1.0610067496739157,-1.1811652066719438
1446674594.61904,-1.3709465377203809,-0.9213804095143692,-1.0533349727420722,-1.1760519373789917,-1.3770839592658557,-0.8385252186504624,-1.0610067496739157,-1.1811652066719438
1446674594.684922,-1.3709465377203809,-0.8876245910142591,-1.059472394287547,-1.1760519373789917,-1.3770839592658557,-0.8385252186504624,-1.0610067496739157,-1.1811652066719438
1446674594.751958,-1.3709465377203809,-0.8692123263778355,-1.059472394287547,-1.1760519373789917,-1.3648091161749063,-0.7924945570594031,-1.0487319065829666,-1.1862784759648959
1446674594.819023,-1.3709465377203809,-0.8477313509686741,-1.059472394287547,-1.1760519373789917,-1.3648091161749063,-0.7924945570594031,-1.0487319065829666,-1.1862784759648959
1446674594.885976,-1.3709465377203809,-0.8185785986276701,-1.059472394287547,-1.1760519373789917,-1.3648091161749063,-0.7924945570594031,-1.0487319065829666,-1.1862784759648959
1446674594.951906,-1.3709465377203809,-0.8155098878549332,-1.0610067496739157,-1.1760519373789917,-1.3709465377203809,-1.0134417326964877,-0.5868909352860054,-1.2834305925309866
1446674595.018975,-1.3709465377203809,-0.8998994341052082,-0.9996325342191699,-1.2169580917226088,-1.3709465377203809,-1.0134417326964877,-0.5868909352860054,-1.2834305925309866
1446674595.085994,-1.3709465377203809,-1.011907377310119,-0.9305865418325809,-1.298770400409843,-1.3709465377203809,-1.0134417326964877,-0.5868909352860054,-1.2834305925309866
1446674595.152973,-1.3709465377203809,-1.036457063492017,-0.8630749048323607,-1.2834305925309866,-1.3709465377203809,-1.0134417326964877,-0.5868909352860054,-1.2834305925309866
1446674595.219892,-1.3709465377203809,-1.036457063492017,-0.7924945570594031,-1.2783173232380345,-1.3709465377203809,-1.0134417326964877,-0.5868909352860054,-1.2834305925309866
1446674595.285984,-1.3709465377203809,-1.036457063492017,-0.7219142092864459,-1.2783173232380345,-1.3709465377203809,-1.0134417326964877,-0.5868909352860054,-1.2834305925309866
1446674595.352965,-1.3709465377203809,-1.036457063492017,-0.6513338615134883,-1.2783173232380345,-1.3709465377203809,-1.0134417326964877,-0.5868909352860054,-1.2834305925309866
1446674595.420026,-1.3709465377203809,-1.0349227081056487,-0.5976314229905855,-1.2783173232380345,-1.3709465377203809,-1.0134417326964877,-0.5868909352860054,-1.2834305925309866
1446674595.487001,-1.3709465377203809,-1.036457063492017,-0.5960970676042172,-1.2783173232380345,-1.392427513129542,-1.2712134376064195,-0.12965303014815,-1.4726215563702156
1446674595.552978,-1.3694121823340124,-1.117777898969555,-0.5377915629222088,-1.3141102082886993,-1.392427513129542,-1.2712134376064195,-0.12965303014815,-1.4726215563702156
1446674595.619923,-1.3709465377203809,-1.2389919744926778,-0.45800508283103936,-1.41126232485479,-1.392427513129542,-1.2712134376064195,-0.12965303014815,-1.4726215563702156
1446674595.68706,-1.3709465377203809,-1.2666103714473134,-0.37361553658076385,-1.487961364249072,-1.392427513129542,-1.2712134376064195,-0.12965303014815,-1.4726215563702156
1446674595.754045,-1.3709465377203809,-1.2788852145382625,-0.30456954419417537,-1.4777348256631677,-1.392427513129542,-1.2712134376064195,-0.12965303014815,-1.4726215563702156
1446674595.820923,-1.3709465377203809,-1.2788852145382625,-0.23398919642121774,-1.4726215563702156,-1.392427513129542,-1.2712134376064195,-0.12965303014815,-1.4726215563702156
1446674595.88705,-1.3709465377203809,-1.2788852145382625,-0.1634088486482601,-1.4726215563702156,-1.392427513129542,-1.2712134376064195,-0.12965303014815,-1.4726215563702156
1446674595.953935,-1.3709465377203809,-1.2788852145382625,-0.14192787323909917,-1.4726215563702156,-1.4077710669932284,-1.3678778269476437,-0.06827881469340458,-1.4675082870772636
1446674596.021046,-1.3832213808113303,-1.3540686284703258,-0.08208801317072201,-1.4726215563702156,-1.4077710669932284,-1.3678778269476437,-0.06827881469340458,-1.4675082870772636
1446674596.088048,-1.387824446970436,-1.3893588023568049,-0.07441623623887894,-1.4726215563702156,-1.421580265470546,-1.387824446970436,-0.09589721164803988,-1.4623950177843112
1446674596.153958,-1.4031680008341225,-1.4000992900613853,-0.08362236855709115,-1.4726215563702156,-1.4169771993114404,-1.3985649346750164,-0.10050027780714599,-1.4623950177843112
1446674596.221046,-1.4077710669932284,-1.4169771993114404,-0.09129414548893422,-1.4675082870772636,-1.4185115546978089,-1.43999253010697,-0.07288188085251068,-1.4623950177843112
1446674596.288022,-1.4077710669932284,-1.444595596266076,-0.08822543471619682,-1.4675082870772636,-1.4200459100841776,-1.476817059379817,-0.048332194670611894,-1.4623950177843112
1446674596.354968,-1.4077710669932284,-1.478351414766186,-0.052935260829718,-1.4675082870772636,-1.421580265470546,-1.5029011009480842,-0.02224815310234529,-1.4623950177843112
1446674596.420924,-1.4077710669932284,-1.5013667455617157,-0.025316863875082696,-1.4675082870772636,-1.4200459100841776,-1.478351414766186,-0.03298864080692576,-1.4623950177843112
1446674596.487899,-1.4077710669932284,-1.495229324016241,-0.028385574647819656,-1.4623950177843112,-1.4461299516524444,-1.3479312069248512,-0.06981317007977283,-1.4623950177843112
1446674596.555023,-1.4185115546978089,-1.4722139932207112,-0.06367574853429891,-1.4623950177843112,-1.4461299516524444,-1.3479312069248512,-0.06981317007977283,-1.4623950177843112
1446674596.621976,-1.423114620856915,-1.4553360839706562,-0.07288188085251068,-1.4623950177843112,-1.4461299516524444,-1.3479312069248512,-0.06981317007977283,-1.4623950177843112
1446674596.688976,-1.423114620856915,-1.4369238193342326,-0.08208801317072201,-1.4623950177843112,-1.4461299516524444,-1.3479312069248512,-0.06981317007977283,-1.4623950177843112
1446674596.754935,-1.423114620856915,-1.4169771993114404,-0.08362236855709115,-1.4623950177843112,-1.4461299516524444,-1.3479312069248512,-0.06981317007977283,-1.4623950177843112
1446674596.821922,-1.423114620856915,-1.3954962239022792,-0.08362236855709115,-1.4623950177843112,-1.4461299516524444,-1.3479312069248512,-0.06981317007977283,-1.4623950177843112
1446674596.888969,-1.423114620856915,-1.3816870254249614,-0.08362236855709115,-1.4623950177843112,-1.5090385224935587,-1.3617404054021691,-0.06827881469340458,-1.4623950177843112
1446674596.955971,-1.469145282447974,-1.3862900915840675,-0.07441623623887894,-1.4623950177843112,-1.5090385224935587,-1.3617404054021691,-0.06827881469340458,-1.4623950177843112
1446674597.021969,-1.5029011009480842,-1.3862900915840675,-0.07288188085251068,-1.4623950177843112,-1.5167102994254018,-1.3939618685159108,-0.06674445930703587,-1.4623950177843112
1446674597.088992,-1.5029011009480842,-1.3985649346750164,-0.07134752546614198,-1.4623950177843112,-1.5289851425163512,-1.469145282447974,-0.05140090544334974,-1.4623950177843112
1446674597.155999,-1.50750416710719,-1.4645422162888682,-0.052935260829718,-1.4623950177843112,-1.5289851425163512,-1.469145282447974,-0.05140090544334974,-1.4623950177843112
1446674597.222994,-1.5105728778799272,-1.4844888363116606,-0.046797839284243636,-1.4623950177843112,-1.5305194979027197,-1.4998323901753468,-0.028385574647819656,-1.4623950177843112
1446674597.28902,-1.5121072332662961,-1.4967636794026096,-0.028385574647819656,-1.4623950177843112,-1.524382076357245,-1.4553360839706562,-0.026851219261450954,-1.4623950177843112
1446674597.356136,-1.5121072332662961,-1.4875575470843978,-0.03145428542055706,-1.4623950177843112,-1.5151759440390333,-1.3663434715612752,-0.03759170696603187,-1.4623950177843112
1446674597.423043,-1.5121072332662961,-1.476817059379817,-0.03912606235240057,-1.4623950177843112,-1.5151759440390333,-1.3663434715612752,-0.03759170696603187,-1.4623950177843112
1446674597.489934,-1.5121072332662961,-1.461473505516131,-0.046797839284243636,-1.4623950177843112,-1.5151759440390333,-1.3663434715612752,-0.03759170696603187,-1.4623950177843112
1446674597.557,-1.5121072332662961,-1.4461299516524444,-0.048332194670611894,-1.4623950177843112,-1.5151759440390333,-1.3663434715612752,-0.03759170696603187,-1.4623950177843112
1446674597.623001,-1.5121072332662961,-1.426183331629652,-0.048332194670611894,-1.4623950177843112,-1.5151759440390333,-1.3663434715612752,-0.03759170696603187,-1.4623950177843112
1446674597.689966,-1.5121072332662961,-1.40623671160686,-0.048332194670611894,-1.4623950177843112,-1.5151759440390333,-1.3663434715612752,-0.03759170696603187,-1.4623950177843112
1446674597.757029,-1.5121072332662961,-1.4016336454477538,-0.048332194670611894,-1.4623950177843112,-1.521313365584508,-1.3371907192202708,-0.06367574853429891,-1.4623950177843112
1446674597.823973,-1.5121072332662961,-1.3893588023568049,-0.056003971602455405,-1.4623950177843112,-1.521313365584508,-1.3371907192202708,-0.06367574853429891,-1.4623950177843112
1446674597.889989,-1.5121072332662961,-1.3694121823340124,-0.06367574853429891,-1.4623950177843112,-1.521313365584508,-1.3371907192202708,-0.06367574853429891,-1.4623950177843112
1446674597.957047,-1.5121072332662961,-1.3648091161749063,-0.06674445930703587,-1.4623950177843112,-1.7453292519943295,-1.3509999176975886,-0.04219477312513753,-1.4623950177843112
1446674598.023997,-1.5581378948573552,-1.3678778269476437,-0.056003971602455405,-1.4623950177843112,-1.7453292519943295,-1.3509999176975886,-0.04219477312513753,-1.4623950177843112
1446674598.090965,-1.6440617964939992,-1.3694121823340124,-0.056003971602455405,-1.4623950177843112,-1.7453292519943295,-1.3509999176975886,-0.04219477312513753,-1.4623950177843112
1446674598.157985,-1.7284513427442745,-1.3694121823340124,-0.0544696162160867,-1.4675082870772636,-1.7453292519943295,-1.3509999176975886,-0.04219477312513753,-1.4623950177843112
1446674598.224066,-1.748397962767067,-1.3694121823340124,-0.0544696162160867,-1.4675082870772636,-1.748397962767067,-1.3954962239022792,-0.03759170696603187,-1.4623950177843112
1446674598.291001,-1.748397962767067,-1.3893588023568049,-0.052935260829718,-1.4623950177843112,-1.748397962767067,-1.4031680008341225,-0.03298864080692576,-1.4623950177843112
1446674598.358144,-1.748397962767067,-1.4154428439250715,-0.03912606235240057,-1.4623950177843112,-1.7514666735398041,-1.4676109270616056,-0.013042020784133523,-1.4623950177843112
1446674598.424997,-1.748397962767067,-1.4737483486070801,-0.019179442329607888,-1.4623950177843112,-1.7514666735398041,-1.4676109270616056,-0.013042020784133523,-1.4623950177843112
1446674598.490996,-1.746863607380698,-1.4921606132435037,-0.01764508694323963,-1.4623950177843112,-1.7545353843125413,-1.5274507871299823,0.029919930034188358,-1.4623950177843112
1446674598.557948,-1.746863607380698,-1.5167102994254018,0.006904599238659159,-1.4623950177843112,-1.7514666735398041,-1.5520004733118808,0.07134752546614154,-1.4623950177843112
1446674598.625053,-1.746863607380698,-1.5412599856073002,0.0514009054433493,-1.4623950177843112,-1.7514666735398041,-1.5520004733118808,0.07134752546614154,-1.4623950177843112
1446674598.691926,-1.746863607380698,-1.5489317625391434,0.06214139314792977,-1.4623950177843112,-1.7453292519943295,-1.50750416710719,0.037591706966031424,-1.4623950177843112
1446674598.759004,-1.746863607380698,-1.5335882086754569,0.04066041773876927,-1.4623950177843112,-1.765275872017122,-1.3862900915840675,-0.06981317007977283,-1.4623950177843112
1446674598.82511,-1.7499323181534354,-1.495229324016241,-0.028385574647819656,-1.452168479198407,-1.765275872017122,-1.3862900915840675,-0.06981317007977283,-1.4623950177843112
1446674598.892023,-1.7530010289261728,-1.459939150129762,-0.06827881469340458,-1.452168479198407,-1.765275872017122,-1.3862900915840675,-0.06981317007977283,-1.4623950177843112
1446674598.959014,-1.7530010289261728,-1.4415268854933385,-0.07595059162524764,-1.452168479198407,-1.765275872017122,-1.3862900915840675,-0.06981317007977283,-1.4623950177843112
1446674599.026042,-1.7530010289261728,-1.421580265470546,-0.08208801317072201,-1.452168479198407,-1.765275872017122,-1.3862900915840675,-0.06981317007977283,-1.4623950177843112
1446674599.091991,-1.7530010289261728,-1.4154428439250715,-0.08362236855709115,-1.4623950177843112,-1.8757494598356639,-1.117777898969555,-0.528585430603997,-1.452168479198407
1446674599.159042,-1.8005660459036006,-1.397030579288648,-0.15266836094368008,-1.452168479198407,-1.8757494598356639,-1.117777898969555,-0.528585430603997,-1.452168479198407
1446674599.225987,-1.8619402613583462,-1.3417937853793769,-0.25086710567127257,-1.452168479198407,-1.8757494598356639,-1.117777898969555,-0.528585430603997,-1.452168479198407
1446674599.293006,-1.8696120382901893,-1.289625702242843,-0.34906585039886595,-1.452168479198407,-1.8757494598356639,-1.117777898969555,-0.528585430603997,-1.452168479198407
1446674599.359,-1.8696120382901893,-1.2389919744926778,-0.4457302397400902,-1.452168479198407,-1.8757494598356639,-1.117777898969555,-0.528585430603997,-1.452168479198407
1446674599.425965,-1.8696120382901893,-1.196030023674356,-0.5193792982857852,-1.452168479198407,-1.8757494598356639,-1.117777898969555,-0.528585430603997,-1.452168479198407
1446674599.493016,-1.8680776829038208,-1.1699459821060891,-0.5301197859903652,-1.452168479198407,-1.8757494598356639,-1.117777898969555,-0.528585430603997,-1.452168479198407
1446674599.55995,-1.8696120382901893,-1.1546024282424026,-0.53625720753584,-1.452168479198407,-1.8757494598356639,-1.117777898969555,-0.528585430603997,-1.452168479198407
1446674599.627051,-1.8696120382901893,-1.1546024282424026,-0.5377915629222088,-1.452168479198407,-1.935589319904041,-1.0027012449919068,-0.7786853585820852,-1.3908092476829814
1446674599.692965,-1.9079709229494055,-1.136190163605979,-0.6099062660815346,-1.4214888634406941,-1.935589319904041,-1.0027012449919068,-0.7786853585820852,-1.3908092476829814
1446674599.759995,-1.918711410653986,-1.110106122037712,-0.7142424323546028,-1.3703561705111729,-1.935589319904041,-1.0027012449919068,-0.7786853585820852,-1.3908092476829814
1446674599.827013,-1.9248488321994606,-1.0855564358558136,-0.7648761601047678,-1.3703561705111729,-1.935589319904041,-1.0027012449919068,-0.7786853585820852,-1.3908092476829814
1446674599.893931,-1.9248488321994606,-1.0564036835148096,-0.7710135816502421,-1.3856959783900293,-1.935589319904041,-1.0027012449919068,-0.7786853585820852,-1.3908092476829814
1446674599.959983,-1.9248488321994606,-1.0303196419465426,-0.7786853585820852,-1.380582709097077,-1.935589319904041,-1.0027012449919068,-0.7786853585820852,-1.3908092476829814
1446674600.027022,-1.9248488321994606,-1.0287852865601739,-0.7817540693548231,-1.3856959783900293,-1.9463298076086215,-1.0686785266057588,-0.7387921185365007,-1.3908092476829814
1446674600.094059,-1.926383187585829,-1.0686785266057588,-0.7541356724001873,-1.3856959783900293,-1.9586046506995707,-1.1684116267197202,-0.6697461261499118,-1.3703561705111729
1446674600.160934,-1.943261096835884,-1.1499993620832967,-0.6973645231045476,-1.3703561705111729,-1.9586046506995707,-1.1684116267197202,-0.6697461261499118,-1.3703561705111729
1446674600.226946,-1.944795452222253,-1.165342915946983,-0.6743491923090179,-1.3703561705111729,-1.9555359399268335,-1.1714803374924576,-0.6682117707635435,-1.3703561705111729
1446674600.294019,-1.9463298076086215,-1.1684116267197202,-0.6697461261499118,-1.3703561705111729,-1.9540015845404646,-1.1193122543559237,-0.7142424323546028,-1.3703561705111729
1446674600.36097,-1.9463298076086215,-1.1515337174696652,-0.6942958123318101,-1.3703561705111729,-1.949398518381359,-0.9474644510826358,-0.8339221524913563,-1.3703561705111729
1446674600.427177,-1.9463298076086215,-1.1515337174696652,-0.6942958123318101,-1.3703561705111729,-1.949398518381359,-0.9474644510826358,-0.8339221524913563,-1.3703561705111729
1446674600.44353,-1.944795452222253,-1.1131748328104494,-0.7618074493320304,-1.3652429012182208,-1.949398518381359,-0.9474644510826358,-0.8339221524913563,-1.3703561705111729
1446674600.514016,-1.9463298076086215,-1.0656098158330218,-0.8109068216958271,-1.3652429012182208,-1.949398518381359,-0.9474644510826358,-0.8339221524913563,-1.3703561705111729
1446674600.576544,-1.9463298076086215,-1.0318539973329117,-0.8216473094004071,-1.3652429012182208,-1.949398518381359,-0.9474644510826358,-0.8339221524913563,-1.3703561705111729
1446674600.643105,-1.9463298076086215,-1.0042356003782755,-0.8293190863322506,-1.3652429012182208,-1.949398518381359,-0.9474644510826358,-0.8339221524913563,-1.3703561705111729
1446674600.71002,-1.9463298076086215,-0.9796859141963776,-0.8339221524913563,-1.3652429012182208,-1.949398518381359,-0.9474644510826358,-0.8339221524913563,-1.3703561705111729
1446674600.782746,-1.9463298076086215,-0.9766172034236402,-0.8339221524913563,-1.3652429012182208,-2.3360560757462565,-0.9520675172417419,-0.8185785986276701,-1.3703561705111729
1446674600.846835,-1.9693451384041512,-0.9766172034236402,-0.8262503755595132,-1.3652429012182208,-2.3360560757462565,-0.9520675172417419,-0.8185785986276701,-1.3703561705111729
1446674600.91585,-2.056803395427164,-0.9766172034236402,-0.8231816647867762,-1.3652429012182208,-2.3360560757462565,-0.9520675172417419,-0.8185785986276701,-1.3703561705111729
1446674600.977291,-2.1473303632229137,-0.9766172034236402,-0.8231816647867762,-1.3652429012182208,-2.3360560757462565,-0.9520675172417419,-0.8185785986276701,-1.3703561705111729
1446674601.042501,-2.234788620245926,-0.9766172034236402,-0.8231816647867762,-1.3652429012182208,-2.3360560757462565,-0.9520675172417419,-0.8185785986276701,-1.3703561705111729
1446674601.111064,-2.3161094557234643,-0.9766172034236402,-0.8231816647867762,-1.3652429012182208,-2.3360560757462565,-0.9520675172417419,-0.8185785986276701,-1.3703561705111729
1446674601.176296,-2.3222468772689386,-0.9766172034236402,-0.8231816647867762,-1.3652429012182208,-2.346796563450837,-1.007304311151013,-0.8554031279005172,-1.3703561705111729
1446674601.24408,-2.325315588041676,-0.9919607572873268,-0.8461969955823054,-1.3652429012182208,-2.3513996296099426,-1.102434345105869,-0.7940289124457718,-1.3703561705111729
1446674601.310176,-2.3314530095871504,-1.0640754604466527,-0.813975532468564,-1.3652429012182208,-2.3513996296099426,-1.102434345105869,-0.7940289124457718,-1.3703561705111729
1446674601.376625,-2.332987364973519,-1.1055030558786059,-0.7924945570594031,-1.3652429012182208,-2.3513996296099426,-1.114709188196818,-0.7694792262638739,-1.3703561705111729
1446674601.443194,-2.332987364973519,-1.110106122037712,-0.7802197139684539,-1.3652429012182208,-2.3483309188372057,-1.0794190143103393,-0.7602730939456617,-1.3703561705111729
1446674601.510073,-2.334521720359888,-1.102434345105869,-0.7710135816502421,-1.3652429012182208,-2.313040744950727,-0.9842889803554837,-0.729585986218289,-1.3703561705111729
1446674601.581504,-2.32071252188257,-1.096296923560394,-0.7433951846956068,-1.3652429012182208,-2.313040744950727,-0.9842889803554837,-0.729585986218289,-1.3703561705111729
1446674601.647483,-2.311506389564358,-1.0686785266057588,-0.737257763150132,-1.3652429012182208,-2.313040744950727,-0.9842889803554837,-0.729585986218289,-1.3703561705111729
1446674601.709605,-2.3099720341779895,-1.0395257742647548,-0.7357234077637638,-1.3652429012182208,-2.313040744950727,-0.9842889803554837,-0.729585986218289,-1.3703561705111729
1446674601.780092,-2.3099720341779895,-1.0149760880828564,-0.7357234077637638,-1.3652429012182208,-2.313040744950727,-0.9842889803554837,-0.729585986218289,-1.3703561705111729
1446674601.842731,-2.3099720341779895,-1.0134417326964877,-0.7357234077637638,-1.3652429012182208,-1.5642753164028298,-0.4150431320127175,0.011507665397764821,-0.6391586616190172
1446674601.915415,-2.2792849264506168,-1.0088386665373816,-0.7035019446500219,-1.3447898240464122,-1.5642753164028298,-0.4150431320127175,0.011507665397764821,-0.6391586616190172
1446674601.975803,-2.1933610248139725,-0.9873576911282207,-0.6344559522634334,-1.2476377074803215,-1.5642753164028298,-0.4150431320127175,0.011507665397764821,-0.6391586616190172
1446674602.047613,-2.1043684124045914,-0.9612736495599536,-0.5669443152632132,-1.1504855909142309,-1.5642753164028298,-0.4150431320127175,0.011507665397764821,-0.6391586616190172
1446674602.109632,-2.0123070892224733,-0.9351896079916866,-0.499432678262993,-1.0328803971763318,-1.5642753164028298,-0.4150431320127175,0.011507665397764821,-0.6391586616190172
1446674602.181383,-1.9233144768130919,-0.9075712110370513,-0.4288523304900349,-0.925501742024337,-1.5642753164028298,-0.4150431320127175,0.011507665397764821,-0.6391586616190172
1446674602.247686,-1.8343218644037107,-0.8814871694687842,-0.3613406934898151,-0.8078965482864378,-1.5642753164028298,-0.4150431320127175,0.011507665397764821,-0.6391586616190172
1446674602.309845,-1.7437948966079608,-0.8569374832868863,-0.2938290564895949,-0.705631162427395,-1.5642753164028298,-0.4150431320127175,0.011507665397764821,-0.6391586616190172
1446674602.375836,-1.6548022841985797,-0.8277847309458819,-0.22631741948937467,-0.6187055844472087,-1.5642753164028298,-0.4150431320127175,0.011507665397764821,-0.6391586616190172
1446674602.442573,-1.567344027175567,-0.7955632678321405,-0.15727142710278574,-0.6187055844472087,-1.5642753164028298,-0.4150431320127175,0.011507665397764821,-0.6391586616190172
1446674602.509421,-1.555069184084618,-0.758738738559293,-0.08669107932982811,-0.6391586616190172,-1.5642753164028298,-0.4150431320127175,0.011507665397764821,-0.6391586616190172
1446674602.580637,-1.555069184084618,-0.7234485646728146,-0.023782508488713994,-0.6391586616190172,-1.5642753164028298,-0.4150431320127175,0.011507665397764821,-0.6391586616190172
1446674602.642872,-1.555069184084618,-0.6728148369226497,-0.016110731556870928,-0.6391586616190172,-1.5642753164028298,-0.4150431320127175,0.011507665397764821,-0.6391586616190172
1446674602.709916,-1.555069184084618,-0.6252498199452212,-0.016110731556870928,-0.6391586616190172,-1.5642753164028298,-0.4150431320127175,0.011507665397764821,-0.6391586616190172
1446674602.782447,-1.555069184084618,-0.5776848029677932,-0.016110731556870928,-0.6391586616190172,-1.5642753164028298,-0.4150431320127175,0.011507665397764821,-0.6391586616190172
1446674602.844253,-1.555069184084618,-0.5301197859903652,-0.016110731556870928,-0.6391586616190172,-1.5642753164028298,-0.4150431320127175,0.011507665397764821,-0.6391586616190172
1446674602.913647,-1.555069184084618,-0.4748829920810942,-0.016110731556870928,-0.6391586616190172,-1.5642753164028298,-0.4150431320127175,0.011507665397764821,-0.6391586616190172
1446674602.981319,-1.555069184084618,-0.42424926433092924,-0.014576376170501781,-0.6391586616190172,-1.5642753164028298,-0.4150431320127175,0.011507665397764821,-0.6391586616190172
1446674603.045624,-1.5535348286982493,-0.41964619817182314,-0.013042020784133523,-0.6391586616190172,-1.4936949686298722,-0.04986655005698104,0.1373248070799935,-0.22498384888989387
1446674603.114959,-1.5167102994254018,-0.404302644308137,0.01917944232960833,-0.6187055844472087,-1.4936949686298722,-0.04986655005698104,0.1373248070799935,-0.22498384888989387
1446674603.176196,-1.4921606132435037,-0.3521345611716029,0.09129414548893422,-0.5266667371740703,-1.4936949686298722,-0.04986655005698104,0.1373248070799935,-0.22498384888989387
1446674603.243174,-1.4921606132435037,-0.2784855026259083,0.1081720547389895,-0.4346278899009315,-1.4936949686298722,-0.04986655005698104,0.1373248070799935,-0.22498384888989387
1446674603.309523,-1.4921606132435037,-0.20330208869384503,0.1081720547389895,-0.32724923474893686,-1.4936949686298722,-0.04986655005698104,0.1373248070799935,-0.22498384888989387
1446674603.377351,-1.4921606132435037,-0.12351560860267563,0.10970641012535776,-0.21987057959694178,-1.4936949686298722,-0.04986655005698104,0.1373248070799935,-0.22498384888989387
1446674603.443359,-1.4921606132435037,-0.04372912851150623,0.11277512089809472,-0.19430423313218137,-1.4936949686298722,-0.04986655005698104,0.1373248070799935,-0.22498384888989387
1446674603.510403,-1.4921606132435037,-0.029919930034188802,0.12044689782993867,-0.2147573103039897,-1.4936949686298722,-0.03759170696603187,0.1419278732390996,-0.22498384888989387
1446674603.581624,-1.4921606132435037,-0.034522996193294464,0.12504996398904433,-0.2147573103039897,-1.4936949686298722,-0.03912606235240057,0.1419278732390996,-0.22498384888989387
1446674603.647593,-1.4921606132435037,-0.034522996193294464,0.12965303014815,-0.21987057959694178,-1.4936949686298722,-0.03912606235240057,0.1419278732390996,-0.22498384888989387
1446674603.709813,-1.4921606132435037,-0.034522996193294464,0.12658431937541303,-0.2147573103039897,0,0,0,0
1446674603.781804,-1.4921606132435037,-0.034522996193294464,0.12811867476178174,-0.2147573103039897,0,0,0,0
1446674603.843006,-1.4921606132435037,-0.034522996193294464,0.12811867476178174,-0.2147573103039897,0,0,0,0
1446674603.91534,-1.4921606132435037,-0.034522996193294464,0.12658431937541303,-0.2147573103039897,0,0,0,0
1446674603.977434,-1.4921606132435037,-0.034522996193294464,0.12658431937541303,-0.21987057959694178,0,0,0,0
1446674604.048325,-1.4921606132435037,-0.034522996193294464,0.12811867476178174,-0.21987057959694178,0,0,0,0
1446674604.117053,-1.4921606132435037,-0.034522996193294464,0.12811867476178174,-0.21987057959694178,0,0,0,0
1446674604.182569,-1.4921606132435037,-0.034522996193294464,0.12811867476178174,-0.2147573103039897,0,0,0,0
1446674604.252223,-1.4921606132435037,-0.034522996193294464,0.12811867476178174,-0.21987057959694178,0,0,0,0
1446674604.326308,-1.4921606132435037,-0.034522996193294464,0.12811867476178174,-0.21987057959694178,0,0,0,0
1446674604.376713,-1.4921606132435037,-0.034522996193294464,0.12658431937541303,-0.2147573103039897,0,0,0,0
1446674604.443595,-1.4921606132435037,-0.034522996193294464,0.12811867476178174,-0.2147573103039897,0,0,0,0
1446674604.51646,-1.4921606132435037,-0.034522996193294464,0.12811867476178174,-0.2147573103039897,0,0,0,0
1446674604.582427,-1.4921606132435037,-0.034522996193294464,0.12811867476178174,-0.2147573103039897,0,0,0,0
1446674604.648679,-1.4921606132435037,-0.034522996193294464,0.12811867476178174,-0.21987057959694178,0,0,0,0
1446674604.721313,-1.4921606132435037,-0.034522996193294464,0.12811867476178174,-0.2147573103039897,0,0,0,0
1446674604.797893,-1.4921606132435037,-0.034522996193294464,0.12811867476178174,-0.2147573103039897,0,0,0,0
1446674604.866379,-1.4921606132435037,-0.034522996193294464,0.12811867476178174,-0.21987057959694178,0,0,0,0
1446674604.93346,-1.4921606132435037,-0.034522996193294464,0.12658431937541303,-0.21987057959694178,0,0,0,0
1446674605.003443,-1.4921606132435037,-0.034522996193294464,0.12811867476178174,-0.2147573103039897,0,0,0,0
1446674605.051427,-1.4921606132435037,-0.034522996193294464,0.12811867476178174,-0.2147573103039897,0,0,0,0
